{
  "taxis": [
    {
      "city": "Delhi",
      "name": "Nikhil",
      "id": "1",
      "location": "Saket",
      "image": "./assets/images/profile/200x200ProfilePic.png"
    },
    {
      "city": "Delhi",
      "name": "Srikanth",
      "id": "2",
      "location": "Mayur Vihar",
      "image": "./assets/images/profile/200x200suarez.png"
    },
    {
      "city": "Mumbai",
      "name": "Joy",
      "id": "3",
      "location": "Varsova",
      "image": "./assets/images/profile/200x200nadal.png"
    },
    {
      "city": "Mumbai",
      "name": "Neil",
      "id": "4",
      "location": "Navi Mumbai",
      "image": "./assets/images/profile/200x200manny.png"
    },
    {
      "city": "Delhi",
      "name": "Amar",
      "id": "5",
      "location": "Vasant Kunj",
      "image": "./assets/images/profile/200x200serena.png"
    },
    {
      "city": "Delhi",
      "name": "Akbar",
      "id": "6",
      "location": "Old Delhi",
      "image": "./assets/images/profile/200x200novak.png"
    },
    {
      "city": "Mumbai",
      "name": "Anthony",
      "id": "7",
      "location": "Juhu",
      "image": "./assets/images/profile/200x200wade.png"
    },
    {
      "city": "Mumbai",
      "name": "Krishna",
      "id": "8",
      "location": "Navi Mumbai",
      "image": "./assets/images/profile/200x200messi.png"
    }

  ]
}